Copying tests/userprog/close-normal to scratch partition...
Copying ../../tests/userprog/sample.txt to scratch partition...
qemu -hda /tmp/GyBbnUVEN4.dsk -m 4 -net none -nographic -monitor null
PiLo hda1
Loading.........
Kernel command line: -q -f extract run close-normal
Pintos booting with 4,096 kB RAM...
383 pages available in kernel pool.
383 pages available in user pool.
Calibrating timer...  209,510,400 loops/s.
hda: 13,104 sectors (6 MB), model "QM00001", serial "QEMU HARDDISK"
hda1: 155 sectors (77 kB), Pintos OS kernel (20)
hda2: 4,096 sectors (2 MB), Pintos file system (21)
hda3: 103 sectors (51 kB), Pintos scratch (22)
hda4: 8,192 sectors (4 MB), Pintos swap (23)
filesys: using hda2
scratch: using hda3
swap: using hda4
Formatting file system...done.
Boot complete.
Extracting ustar archive from scratch device into file system...
Putting 'close-normal' into the file system...
Putting 'sample.txt' into the file system...
Erasing ustar archive...
Executing 'close-normal':
(close-normal) begin
(close-normal) open "sample.txt"
(close-normal) close "sample.txt"
(close-normal) end
close-normal: exit(0)
Execution of 'close-normal' complete.
Timer: 71 ticks
Thread: 0 idle ticks, 70 kernel ticks, 1 user ticks
hda2 (filesys): 95 reads, 212 writes
hda3 (scratch): 102 reads, 2 writes
hda4 (swap): 0 reads, 0 writes
Console: 1112 characters output
Keyboard: 0 keys pressed
Exception: 5 page faults
Powering off...
