Copying tests/userprog/exec-arg to scratch partition...
Copying tests/userprog/child-args to scratch partition...
qemu -hda /tmp/Eb4y1R13QW.dsk -m 4 -net none -nographic -monitor null
PiLo hda1
Loading.........
Kernel command line: -q -f extract run exec-arg
Pintos booting with 4,096 kB RAM...
383 pages available in kernel pool.
383 pages available in user pool.
Calibrating timer...  209,510,400 loops/s.
hda: 13,104 sectors (6 MB), model "QM00001", serial "QEMU HARDDISK"
hda1: 155 sectors (77 kB), Pintos OS kernel (20)
hda2: 4,096 sectors (2 MB), Pintos file system (21)
hda3: 198 sectors (99 kB), Pintos scratch (22)
hda4: 8,192 sectors (4 MB), Pintos swap (23)
filesys: using hda2
scratch: using hda3
swap: using hda4
Formatting file system...done.
Boot complete.
Extracting ustar archive from scratch device into file system...
Putting 'exec-arg' into the file system...
Putting 'child-args' into the file system...
Erasing ustar archive...
Executing 'exec-arg':
(exec-arg) begin
(args) begin
(args) argc = 2
(args) argv[0] = 'child-args'
(args) argv[1] = 'childarg'
(args) argv[2] = null
(args) end
child-args: exit(0)
(exec-arg) end
exec-arg: exit(0)
Execution of 'exec-arg' complete.
Timer: 80 ticks
Thread: 0 idle ticks, 80 kernel ticks, 1 user ticks
hda2 (filesys): 133 reads, 402 writes
hda3 (scratch): 197 reads, 2 writes
hda4 (swap): 0 reads, 0 writes
Console: 1158 characters output
Keyboard: 0 keys pressed
Exception: 10 page faults
Powering off...
