Copying tests/userprog/sc-boundary to scratch partition...
qemu -hda /tmp/49He5OYYvK.dsk -m 4 -net none -nographic -monitor null
PiLo hda1
Loading.........
Kernel command line: -q -f extract run sc-boundary
Pintos booting with 4,096 kB RAM...
383 pages available in kernel pool.
383 pages available in user pool.
Calibrating timer...  209,510,400 loops/s.
hda: 13,104 sectors (6 MB), model "QM00001", serial "QEMU HARDDISK"
hda1: 155 sectors (77 kB), Pintos OS kernel (20)
hda2: 4,096 sectors (2 MB), Pintos file system (21)
hda3: 103 sectors (51 kB), Pintos scratch (22)
hda4: 8,192 sectors (4 MB), Pintos swap (23)
filesys: using hda2
scratch: using hda3
swap: using hda4
Formatting file system...done.
Boot complete.
Extracting ustar archive from scratch device into file system...
Putting 'sc-boundary' into the file system...
Erasing ustar archive...
Executing 'sc-boundary':
(sc-boundary) begin
sc-boundary: exit(42)
Execution of 'sc-boundary' complete.
Timer: 70 ticks
Thread: 0 idle ticks, 69 kernel ticks, 1 user ticks
hda2 (filesys): 59 reads, 210 writes
hda3 (scratch): 102 reads, 2 writes
hda4 (swap): 0 reads, 0 writes
Console: 976 characters output
Keyboard: 0 keys pressed
Exception: 6 page faults
Powering off...
