Copying tests/userprog/wait-twice to scratch partition...
Copying tests/userprog/child-simple to scratch partition...
qemu -hda /tmp/mAXglSLT4H.dsk -m 4 -net none -nographic -monitor null
PiLo hda1
Loading.........
Kernel command line: -q -f extract run wait-twice
Pintos booting with 4,096 kB RAM...
383 pages available in kernel pool.
383 pages available in user pool.
Calibrating timer...  209,510,400 loops/s.
hda: 13,104 sectors (6 MB), model "QM00001", serial "QEMU HARDDISK"
hda1: 155 sectors (77 kB), Pintos OS kernel (20)
hda2: 4,096 sectors (2 MB), Pintos file system (21)
hda3: 199 sectors (99 kB), Pintos scratch (22)
hda4: 8,192 sectors (4 MB), Pintos swap (23)
filesys: using hda2
scratch: using hda3
swap: using hda4
Formatting file system...done.
Boot complete.
Extracting ustar archive from scratch device into file system...
Putting 'wait-twice' into the file system...
Putting 'child-simple' into the file system...
Erasing ustar archive...
Executing 'wait-twice':
(wait-twice) begin
(child-simple) run
child-simple: exit(81)
(wait-twice) wait(exec()) = 81
(wait-twice) wait(exec()) = -1
(wait-twice) end
wait-twice: exit(0)
Execution of 'wait-twice' complete.
Timer: 69 ticks
Thread: 0 idle ticks, 68 kernel ticks, 1 user ticks
hda2 (filesys): 131 reads, 404 writes
hda3 (scratch): 198 reads, 2 writes
hda4 (swap): 0 reads, 0 writes
Console: 1138 characters output
Keyboard: 0 keys pressed
Exception: 9 page faults
Powering off...
