Copying tests/vm/mmap-twice to scratch partition...
Copying ../../tests/vm/sample.txt to scratch partition...
qemu -hda /tmp/Bfq9KzfzH3.dsk -m 4 -net none -nographic -monitor null
PiLo hda1
Loading.........
Kernel command line: -q -f extract run mmap-twice
Pintos booting with 4,096 kB RAM...
383 pages available in kernel pool.
383 pages available in user pool.
Calibrating timer...  209,510,400 loops/s.
hda: 13,104 sectors (6 MB), model "QM00001", serial "QEMU HARDDISK"
hda1: 155 sectors (77 kB), Pintos OS kernel (20)
hda2: 4,096 sectors (2 MB), Pintos file system (21)
hda3: 106 sectors (53 kB), Pintos scratch (22)
hda4: 8,192 sectors (4 MB), Pintos swap (23)
filesys: using hda2
scratch: using hda3
swap: using hda4
Formatting file system...done.
Boot complete.
Extracting ustar archive from scratch device into file system...
Putting 'mmap-twice' into the file system...
Putting 'sample.txt' into the file system...
Erasing ustar archive...
Executing 'mmap-twice':
(mmap-twice) begin
(mmap-twice) open "sample.txt" #0
(mmap-twice) mmap "sample.txt" #0 at 0x10000000
(mmap-twice) open "sample.txt" #1
(mmap-twice) mmap "sample.txt" #1 at 0x20000000
(mmap-twice) compare mmap'd file 0 against data
(mmap-twice) compare mmap'd file 1 against data
(mmap-twice) end
mmap-twice: exit(0)
Execution of 'mmap-twice' complete.
Timer: 72 ticks
Thread: 0 idle ticks, 70 kernel ticks, 2 user ticks
hda2 (filesys): 104 reads, 218 writes
hda3 (scratch): 105 reads, 2 writes
hda4 (swap): 0 reads, 0 writes
Console: 1292 characters output
Keyboard: 0 keys pressed
Exception: 7 page faults
Powering off...
