Copying tests/vm/mmap-zero to scratch partition...
qemu -hda /tmp/yevbbkTD0T.dsk -m 4 -net none -nographic -monitor null
PiLo hda1
Loading.........
Kernel command line: -q -f extract run mmap-zero
Pintos booting with 4,096 kB RAM...
383 pages available in kernel pool.
383 pages available in user pool.
Calibrating timer...  209,510,400 loops/s.
hda: 13,104 sectors (6 MB), model "QM00001", serial "QEMU HARDDISK"
hda1: 155 sectors (77 kB), Pintos OS kernel (20)
hda2: 4,096 sectors (2 MB), Pintos file system (21)
hda3: 101 sectors (50 kB), Pintos scratch (22)
hda4: 8,192 sectors (4 MB), Pintos swap (23)
filesys: using hda2
scratch: using hda3
swap: using hda4
Formatting file system...done.
Boot complete.
Extracting ustar archive from scratch device into file system...
Putting 'mmap-zero' into the file system...
Erasing ustar archive...
Executing 'mmap-zero':
(mmap-zero) begin
(mmap-zero) create empty file "empty"
(mmap-zero) open "empty"
(mmap-zero) mmap "empty"
mmap-zero: exit(-1)
Execution of 'mmap-zero' complete.
Timer: 63 ticks
Thread: 0 idle ticks, 62 kernel ticks, 1 user ticks
hda2 (filesys): 90 reads, 210 writes
hda3 (scratch): 100 reads, 2 writes
hda4 (swap): 0 reads, 0 writes
Console: 1052 characters output
Keyboard: 0 keys pressed
Exception: 6 page faults
Powering off...
