FAIL
Kernel panic in run: PANIC at ../../lib/string.c:332 in strlcpy(): assertion `dst != NULL' failed.
Call stack: 0xc00286a9 0xc0027d33 0xc002a99f 0xc002c594 0xc002c7b1 0xc0021b36 0xc0021c73 0x804a632 0x8048222 0x8048442 0x80480ba 0x8048bb3 0x8048be0
Translation of call stack:
In kernel.o:
0xc00286a9: debug_panic (.../../lib/kernel/debug.c:38)
0xc0027d33: strlcpy (...ld/../../lib/string.c:333)
0xc002a99f: process_execute (.../../userprog/process.c:59)
0xc002c594: exec (...../userprog/syscall.c:399)
0xc002c7b1: syscall_handler (...../userprog/syscall.c:137)
0xc0021b36: intr_handler (..../threads/interrupt.c:367)
0xc0021c73: intr_entry (threads/intr-stubs.S:38)
In tests/vm/page-merge-mm:
0x0804a632: exec (.../../lib/user/syscall.c:81)
0x08048222: sort_chunks (...ts/vm/parallel-merge.c:62)
0x08048442: parallel_merge (...s/vm/parallel-merge.c:147)
0x080480ba: test_main (...ests/vm/page-merge-mm.c:8)
0x08048bb3: main (...ild/../../tests/main.c:13)
0x08048be0: _start (.../../../lib/user/entry.c:9)
Translations of user virtual addresses above are based on a guess at
the binary to use.  If this guess is incorrect, then those
translations will be misleading.
