FAIL
Test output failed to match any acceptable form.

Acceptable output:
  (pt-big-stk-obj) begin
  (pt-big-stk-obj) cksum: 3256410166
  (pt-big-stk-obj) end
Differences in `diff -u' format:
+ get_addr : 0xc010f000 -- 0
+ adrsss : 0x80488f8 --- 0x8048000
+ get_addr : 0xc0281000 -- 0
+ adrsss : 0x804c748 --- 0x804c000
+ get_addr : 0xc0282000 -- 0
+ adrsss : 0x80494f7 --- 0x8049000
+ get_addr : 0xc0283000 -- 0
+ adrsss : 0x804a94c --- 0x804a000
+ get_addr : 0xc0284000 -- 0
+ sys call : 0x9, esp : 0xbfffff38
  (pt-big-stk-obj) begin
+ adrsss : 0xbffefe78 --- 0xbffef000
+ get_addr : 0xc0111000 -- 0
+ adrsss : 0xbfff0000 --- 0xbfff0000
+ get_addr : 0xc0112000 -- 0
+ adrsss : 0xbfff1000 --- 0xbfff1000
+ get_addr : 0xc0113000 -- 0
+ adrsss : 0xbfff2000 --- 0xbfff2000
+ get_addr : 0xc0114000 -- 0
+ adrsss : 0xbfff3000 --- 0xbfff3000
+ get_addr : 0xc0115000 -- 0
+ adrsss : 0xbfff4000 --- 0xbfff4000
+ get_addr : 0xc0116000 -- 0
+ adrsss : 0xbfff5000 --- 0xbfff5000
+ get_addr : 0xc0117000 -- 0
+ adrsss : 0xbfff6000 --- 0xbfff6000
+ get_addr : 0xc0118000 -- 0
+ adrsss : 0xbfff7000 --- 0xbfff7000
+ get_addr : 0xc0119000 -- 0
+ adrsss : 0xbfff8000 --- 0xbfff8000
+ get_addr : 0xc011b000 -- 0
+ adrsss : 0xbfff9000 --- 0xbfff9000
+ get_addr : 0xc011c000 -- 0
+ adrsss : 0xbfffa000 --- 0xbfffa000
+ get_addr : 0xc011d000 -- 0
+ adrsss : 0xbfffb000 --- 0xbfffb000
+ get_addr : 0xc011e000 -- 0
+ adrsss : 0xbfffc000 --- 0xbfffc000
+ get_addr : 0xc011f000 -- 0
+ adrsss : 0xbfffd000 --- 0xbfffd000
+ get_addr : 0xc0120000 -- 0
+ adrsss : 0xbfffe000 --- 0xbfffe000
+ get_addr : 0xc0121000 -- 0
+ adrsss : 0x804bfbc --- 0x804b000
+ get_addr : 0xc0285000 -- 0
+ sys call : 0x9, esp : 0xbffefe08
  (pt-big-stk-obj) cksum: 3256410166
+ sys call : 0x9, esp : 0xbfffff38
  (pt-big-stk-obj) end
+ sys call : 0x1, esp : 0xbfffff98

(Process exit codes are excluded for matching purposes.)
