Copying tests/filesys/base/sm-seq-block to scratch partition...
qemu -hda /tmp/9jlM09Ffmi.dsk -m 4 -net none -nographic -monitor null
PiLo hda1
Loading.........
Kernel command line: -q -f extract run sm-seq-block
Pintos booting with 4,096 kB RAM...
383 pages available in kernel pool.
383 pages available in user pool.
Calibrating timer...  209,510,400 loops/s.
hda: 13,104 sectors (6 MB), model "QM00001", serial "QEMU HARDDISK"
hda1: 155 sectors (77 kB), Pintos OS kernel (20)
hda2: 4,096 sectors (2 MB), Pintos file system (21)
hda3: 103 sectors (51 kB), Pintos scratch (22)
hda4: 8,192 sectors (4 MB), Pintos swap (23)
filesys: using hda2
scratch: using hda3
swap: using hda4
Formatting file system...done.
Boot complete.
Extracting ustar archive from scratch device into file system...
Putting 'sm-seq-block' into the file system...
Erasing ustar archive...
Executing 'sm-seq-block':
(sm-seq-block) begin
(sm-seq-block) create "noodle"
(sm-seq-block) open "noodle"
(sm-seq-block) writing "noodle"
(sm-seq-block) close "noodle"
(sm-seq-block) open "noodle" for verification
(sm-seq-block) verified contents of "noodle"
(sm-seq-block) close "noodle"
(sm-seq-block) end
sm-seq-block: exit(0)
Execution of 'sm-seq-block' complete.
Timer: 73 ticks
Thread: 0 idle ticks, 69 kernel ticks, 4 user ticks
hda2 (filesys): 128 reads, 249 writes
hda3 (scratch): 102 reads, 2 writes
hda4 (swap): 0 reads, 0 writes
Console: 1244 characters output
Keyboard: 0 keys pressed
Exception: 6 page faults
Powering off...
